date,county,location,cases_ag,source
2020-12-11,Brodsko-posavska,županija,3,http://www.bpz.hr/novosti/stozer_civilne_zastite/priopcenje_za_javnost_stozera_cz_bpz_11prosinca_2020_-_198_novih_pozitivnih_osoba_3_osobe_preminule.aspx
2020-12-19,Brodsko-posavska,županija,4,http://www.bpz.hr/novosti/stozer_civilne_zastite/priopcenje_za_javnost_stozera_cz_bpz_1912_2020_-_85_novih_pozitivnih_osoba_u_brodsko-posavskoj_zupaniji.aspx
2020-12-20,Brodsko-posavska,županija,3,http://www.bpz.hr/novosti/stozer_civilne_zastite/priopcenje_za_javnost_stozera_cz_bpz_2012_2020_-_73_nove_pozitivne_osobe_u_bpz_jedna_osoba_preminula.aspx
2020-12-21,Brodsko-posavska,županija,7,http://www.bpz.hr/novosti/stozer_civilne_zastite/priopcenje_za_javnost_stozera_cz_bpz_2112_2020_-_48_novih_pozitivnih_osoba_u_bpz_cetiri_osobe_preminule_.aspx
2020-12-22,Brodsko-posavska,županija,2,http://www.bpz.hr/novosti/stozer_civilne_zastite/priopcenje_za_javnost_stozera_cz_bpz_2212_2020_-_12_novih_pozitivnih_osoba_u_bpz_tri_osobe_preminule.aspx
2020-12-23,Brodsko-posavska,županija,2,http://www.bpz.hr/novosti/stozer_civilne_zastite/priopcenje_za_javnost_stozera_cz_bpz_2312_2020_-_78_novih_pozitivnih_osoba_u_brodsko-posavskoj_zupaniji.aspx
2020-12-24,Brodsko-posavska,županija,5,http://www.bpz.hr/novosti/stozer_civilne_zastite/priopcenje_za_javnost_stozera_cz_bpz__2412_2020_-_70_novih_pozitivnih_osoba_u_bpz_jedna_osoba_preminula.aspx
2020-12-25,Brodsko-posavska,županija,3,http://www.bpz.hr/novosti/stozer_civilne_zastite/priopcenje_za_javnost_stozera_cz_bpz__2512_2020_-_53_nove_pozitivne_osobe_u_bpz_jedna_osoba_preminula.aspx
2020-12-26,Brodsko-posavska,županija,5,http://www.bpz.hr/novosti/stozer_civilne_zastite/priopcenje_za_javnost_stozera_cz_bpz__2612_2020_-_53_nove_pozitivne_osobe_u_brodsko-posavskoj_zupaniji.aspx
2020-12-29,Brodsko-posavska,županija,7,http://www.bpz.hr/novosti/stozer_civilne_zastite/priopcenje_za_javnost_stozera_cz_bpz__2912_2020_-_32_nove_pozitivne_osobe_u_brodsko-posavskoj_zupaniji.aspx
2020-12-30,Brodsko-posavska,županija,1,http://www.bpz.hr/novosti/stozer_civilne_zastite/priopcenje_za_javnost_stozera_cz_bpz__3012_2020_-_47_novih_pozitivnih_osoba_u_brodsko-posavskoj_zupaniji.aspx
2020-12-31,Brodsko-posavska,županija,2,http://www.bpz.hr/novosti/stozer_civilne_zastite/priopcenje_za_javnost_stozera_cz_bpz_3112_2020_-_135_novih_pozitivnih_osoba_u__bpz_i_jedna_osoba_preminula.aspx
2021-01-01,Brodsko-posavska,županija,5,http://www.bpz.hr/novosti/stozer_civilne_zastite/priopcenje_za_javnost_stozera_cz_bpz__1sijecnja_2021_-_31_nova_pozitivna_osoba_u_bpz_dvije_osobe_preminule.aspx
2021-01-02,Brodsko-posavska,županija,9,http://www.bpz.hr/novosti/stozer_civilne_zastite/priopcenje_za_javnost_stozera_cz_bpz__212021_-_56_novih_pozitivnih_osoba_u_brodsko-posavskoj_zupaniji.aspx
2021-01-03,Brodsko-posavska,županija,5,http://www.bpz.hr/novosti/stozer_civilne_zastite/priopcenje_za_javnost_stozera_cz_bpz_31_2021_-__19_novih_pozitivnih_osoba_u_bpz_nema_preminulih_od_covid-19.aspx
2021-01-07,Brodsko-posavska,županija,4,http://www.bpz.hr/novosti/stozer_civilne_zastite/priopcenje_za_javnost_stozera_cz_bpz__712021_-_74_nove_pozitivne_osobe_u_bpz_dvije_osobe_preminule.aspx
2021-01-09,Brodsko-posavska,županija,2,http://www.bpz.hr/novosti/stozer_civilne_zastite/priopcenje_za_javnost_stozera_cz_bpz_09012021_-_23_nove_pozitivne_osobe_u_bpz_jedna_osoba_preminula.aspx
2020-11-29,Dubrovačko-neretvanska,županija,15,http://www.edubrovnik.org/koronavirus/priopcenje-stozera-civilne-zastite-dubrovacko-neretvanske-zupanije-29-studenog-2020/
2020-11-30,Dubrovačko-neretvanska,županija,1,http://www.edubrovnik.org/koronavirus/priopcenje-stozera-civilne-zastite-dubrovacko-neretvanske-zupanije-30-studenog-2020/
2020-12-01,Dubrovačko-neretvanska,županija,39,http://www.edubrovnik.org/koronavirus/priopcenje-stozera-civilne-zastite-dubrovacko-neretvanske-zupanije-1-prosinca-2020/
2020-12-02,Dubrovačko-neretvanska,županija,59,http://www.edubrovnik.org/koronavirus/priopcenje-stozera-civilne-zastite-dubrovacko-neretvanske-zupanije-2-prosinca-2020/
2020-12-03,Dubrovačko-neretvanska,županija,68,http://www.edubrovnik.org/koronavirus/priopcenje-stozera-civilne-zastite-dubrovacko-neretvanske-zupanije-3-prosinca-2020/
2020-12-04,Dubrovačko-neretvanska,županija,45,http://www.edubrovnik.org/koronavirus/priopcenje-stozera-civilne-zastite-dubrovacko-neretvanske-zupanije-4-prosinca-2020/
2020-12-05,Dubrovačko-neretvanska,županija,66,http://www.edubrovnik.org/koronavirus/priopcenje-stozera-civilne-zastite-dubrovacko-neretvanske-zupanije-5-prosinca-2020/
2020-12-06,Dubrovačko-neretvanska,županija,26,http://www.edubrovnik.org/koronavirus/priopcenje-stozera-civilne-zastite-dubrovacko-neretvanske-zupanije-6-prosinca-2020/
2020-12-07,Dubrovačko-neretvanska,županija,8,http://www.edubrovnik.org/koronavirus/priopcenje-stozera-civilne-zastite-dubrovacko-neretvanske-zupanije-7-prosinca-2020/
2020-12-08,Dubrovačko-neretvanska,županija,96,http://www.edubrovnik.org/koronavirus/priopcenje-stozera-civilne-zastite-dubrovacko-neretvanske-zupanije-8-prosinca-2020/
2020-12-09,Dubrovačko-neretvanska,županija,90,http://www.edubrovnik.org/koronavirus/priopcenje-stozera-civilne-zastite-dubrovacko-neretvanske-zupanije-9-prosinca-2020/
2020-12-10,Dubrovačko-neretvanska,županija,55,http://www.edubrovnik.org/koronavirus/priopcenje-stozera-civilne-zastite-dubrovacko-neretvanske-zupanije-10-prosinca-2020/
2020-12-11,Dubrovačko-neretvanska,županija,48,http://www.edubrovnik.org/koronavirus/priopcenje-stozera-civilne-zastite-dubrovacko-neretvanske-zupanije-11-prosinca-2020/
2020-12-12,Dubrovačko-neretvanska,županija,71,http://www.edubrovnik.org/koronavirus/priopcenje-stozera-civilne-zastite-dubrovacko-neretvanske-zupanije-12-prosinca-2020/
2020-12-13,Dubrovačko-neretvanska,županija,14,http://www.edubrovnik.org/koronavirus/priopcenje-stozera-civilne-zastite-dubrovacko-neretvanske-zupanije-13-prosinca-2020/
2020-12-14,Dubrovačko-neretvanska,županija,3,http://www.edubrovnik.org/koronavirus/priopcenje-stozera-civilne-zastite-dubrovacko-neretvanske-zupanije-14-prosinca-2020/
2020-12-15,Dubrovačko-neretvanska,županija,46,http://www.edubrovnik.org/koronavirus/priopcenje-stozera-civilne-zastite-dubrovacko-neretvanske-zupanije-15-prosinca-2020/
2020-12-16,Dubrovačko-neretvanska,županija,36,http://www.edubrovnik.org/koronavirus/priopcenje-stozera-civilne-zastite-dubrovacko-neretvanske-zupanije-16-prosinca-2020/
2020-12-17,Dubrovačko-neretvanska,županija,34,http://www.edubrovnik.org/koronavirus/priopcenje-stozera-civilne-zastite-dubrovacko-neretvanske-zupanije-17-prosinca-2020/
2020-12-18,Dubrovačko-neretvanska,županija,20,http://www.edubrovnik.org/koronavirus/priopcenje-stozera-civilne-zastite-dubrovacko-neretvanske-zupanije-18-prosinca-2020/
2020-12-19,Dubrovačko-neretvanska,županija,19,http://www.edubrovnik.org/koronavirus/priopcenje-stozera-civilne-zastite-dubrovacko-neretvanske-zupanije-19-prosinca-2020/
2020-12-20,Dubrovačko-neretvanska,županija,9,http://www.edubrovnik.org/koronavirus/priopcenje-stozera-civilne-zastite-dubrovacko-neretvanske-zupanije-20-prosinca-2020/
2020-12-23,Dubrovačko-neretvanska,županija,25,http://www.edubrovnik.org/koronavirus/priopcenje-stozera-civilne-zastite-dubrovacko-neretvanske-zupanije-23-prosinca-2020/
2020-12-24,Dubrovačko-neretvanska,županija,12,http://www.edubrovnik.org/koronavirus/priopcenje-stozera-civilne-zastite-dubrovacko-neretvanske-zupanije-24-prosinca-2020/
2020-12-25,Dubrovačko-neretvanska,županija,12,http://www.edubrovnik.org/koronavirus/priopcenje-stozera-civilne-zastite-dubrovacko-neretvanske-zupanije-25-prosinca-2020/
2020-12-27,Dubrovačko-neretvanska,županija,9,http://www.edubrovnik.org/koronavirus/priopcenje-stozera-civilne-zastite-dubrovacko-neretvanske-zupanije-27-prosinca-2020/
2020-12-28,Dubrovačko-neretvanska,županija,1,http://www.edubrovnik.org/koronavirus/priopcenje-stozera-civilne-zastite-dubrovacko-neretvanske-zupanije-28-prosinca-2020/
2020-12-29,Dubrovačko-neretvanska,županija,15,http://www.edubrovnik.org/koronavirus/priopcenje-stozera-civilne-zastite-dubrovacko-neretvanske-zupanije-29-prosinca-2020/
2020-12-30,Dubrovačko-neretvanska,županija,25,http://www.edubrovnik.org/koronavirus/priopcenje-stozera-civilne-zastite-dubrovacko-neretvanske-zupanije-30-prosinca-2020/
2020-12-31,Dubrovačko-neretvanska,županija,28,http://www.edubrovnik.org/koronavirus/priopcenje-stozera-civilne-zastite-dubrovacko-neretvanske-zupanije-31-prosinca-2020/
2021-01-01,Dubrovačko-neretvanska,županija,16,http://www.edubrovnik.org/koronavirus/priopcenje-stozera-civilne-zastite-dubrovacko-neretvanske-zupanije-1-sijecnja-2021/
2021-01-03,Dubrovačko-neretvanska,županija,16,http://www.edubrovnik.org/koronavirus/priopcenje-stozera-civilne-zastite-dubrovacko-neretvanske-zupanije-3-sijecnja-2021/
2021-01-08,Dubrovačko-neretvanska,županija,19,http://www.edubrovnik.org/koronavirus/priopcenje-stozera-civilne-zastite-dubrovacko-neretvanske-zupanije-8-sijecnja-2021/
2021-01-09,Dubrovačko-neretvanska,županija,23,http://www.edubrovnik.org/koronavirus/priopcenje-stozera-civilne-zastite-dubrovacko-neretvanske-zupanije-9-sijecnja-2021/
2021-01-10,Dubrovačko-neretvanska,županija,2,http://www.edubrovnik.org/koronavirus/priopcenje-stozera-civilne-zastite-dubrovacko-neretvanske-zupanije-10-sijecnja-2021/
2021-01-12,Dubrovačko-neretvanska,županija,15,http://www.edubrovnik.org/koronavirus/priopcenje-stozera-civilne-zastite-dubrovacko-neretvanske-zupanije-12-sijecnja-2021/
2021-01-13,Dubrovačko-neretvanska,županija,9,http://www.edubrovnik.org/koronavirus/priopcenje-stozera-civilne-zastite-dubrovacko-neretvanske-zupanije-13-sijecnja-2021/
2021-01-14,Dubrovačko-neretvanska,županija,7,http://www.edubrovnik.org/koronavirus/priopcenje-stozera-civilne-zastite-dubrovacko-neretvanske-zupanije-14-sijecnja-2021/
2020-11-24,Grad Zagreb,domovi zdravlja,248,https://www.zagreb.hr/izvjestaj-nzjz-dr-andrija-stampar-24-studenoga/164021
2020-11-25,Grad Zagreb,domovi zdravlja,328,https://www.zagreb.hr/dnevni-izvjestaj-nzjz-dr-andrija-stampar/164060
2020-11-26,Grad Zagreb,domovi zdravlja,226,https://www.zagreb.hr/dnevno-izvjesce-nzjz-dr-andrija-stampar/164094
2020-11-27,Grad Zagreb,domovi zdravlja,295,https://www.zagreb.hr/konferencija-za-novinare-stozera-civilne-zastite-g/164163
2020-11-28,Grad Zagreb,domovi zdravlja,361,https://www.zagreb.hr/dnevni-izvjestaj-nzjz-dr-andrija-stampar/164183
2020-11-29,Grad Zagreb,domovi zdravlja,414,https://web.facebook.com/zagreb.hr/posts/3706650619398400
2020-12-01,Grad Zagreb,domovi zdravlja,501,https://dnevnik.hr/vijesti/koronavirus/iz-minute-u-minutu-koronavirus-u-hrvatskoj-1-prosinca-2020---630194.html
2020-12-02,Grad Zagreb,domovi zdravlja,542,https://www.zagreb.hr/dnevno-izvjesce-nzjz-dr-andrija-stampar/165306
2020-12-03,Grad Zagreb,domovi zdravlja,597,https://dnevnik.hr/vijesti/koronavirus/iz-minute-u-minutu-koronavirus-u-hrvatskoj-3-prosinca-2020---630515.html
2020-12-04,Grad Zagreb,domovi zdravlja,512,https://www.tportal.hr/vijesti/clanak/u-zagrebu-740-novih-slucajeva-zaraze-koronavirusom-imamo-losu-epidemiolosku-situaciju-20201204
2020-12-05,Grad Zagreb,domovi zdravlja,497,https://dnevnik.hr/vijesti/koronavirus/koronavirus-u-hrvatskoj-5-prosinca-2020---630872.html
2020-12-06,Grad Zagreb,domovi zdravlja,475,https://dnevnik.hr/vijesti/koronavirus/koronavirus-u-hrvatskoj-6-prosinca-2020---630951.html
2020-12-08,Grad Zagreb,domovi zdravlja,426,https://www.zagreb.hr/u-zagrebu-388-novooboljelih-osoba/165684
2020-12-09,Grad Zagreb,domovi zdravlja,555,https://www.zagreb.hr/en/izvjesce-nzjz-dr-andrija-stampar/165728
2020-12-10,Grad Zagreb,domovi zdravlja,525,https://www.zagreb.hr/u-zagrebu-636-novooboljelih-osoba/165781
2020-12-12,Grad Zagreb,domovi zdravlja,414,FB Grad Zagreb
2020-12-15,Grad Zagreb,domovi zdravlja,439,https://www.zagreb.hr/u-zagrebu-417-novooboljelih-osoba/165983
2020-12-16,Grad Zagreb,domovi zdravlja,490,https://www.zagreb.hr/u-zagrebu-464-novooboljele-osobe/166041
2020-12-17,Grad Zagreb,domovi zdravlja,431,https://www.zagreb.hr/zagreb-biljezi-559-novooboljelih-osoba/166058
2020-12-18,Grad Zagreb,domovi zdravlja,356,https://www.zagreb.hr/en/konferencija-za-medije-stozera-czgz/166100
2020-12-19,Grad Zagreb,domovi zdravlja,213,https://www.zagreb.hr/konferencija-za-novinare-stozera-czgz-zagreb-bilje/166195
2020-12-22,Grad Zagreb,domovi zdravlja,267,https://www.zagreb.hr/izvjesce-nzjz-dr-andrija-stampar/166277
2020-12-23,Grad Zagreb,domovi zdravlja,324,https://web.facebook.com/zagreb.hr/posts/3769407729789355
2020-12-24,Grad Zagreb,domovi zdravlja,182,https://www.zagreb.hr/en/izvjestaj-nzjz-dr-andrija-stampar/166408
2021-01-14,Grad Zagreb,domovi zdravlja,55,https://www.tportal.hr/vijesti/clanak/u-zagrebu-121-novooboljela-osoba-od-covida-19-vise-je-oporavljenih-20210114/print
2020-12-08,Karlovačka,domovi zdravlja,102,@Kiki12333047
2020-12-09,Karlovačka,domovi zdravlja,86,https://trend.com.hr/2020/12/09/u-karlovackoj-zupaniji-imamo-214-novih-slucajeva-zaraze/
2020-12-10,Karlovačka,domovi zdravlja,125,@Kiki12333047
2020-12-11,Karlovačka,domovi zdravlja,123,https://www.rtl.hr/vijesti-hr/korona/3943228/stanje-po-zupanijama-zagreb-ima-625-novozarazenih-karlovacka-ima-265-novih-slucajeva-i-8-mrtvih/
2020-12-12,Karlovačka,domovi zdravlja,103,https://radio-mreznica.hr/268-novih-slucajeva-zaraze-u-zupaniji/
2020-12-15,Karlovačka,domovi zdravlja,113,https://radio-mreznica.hr/u-24-sata-248-novih-slucajeva-zaraze-u-karlovackoj-zupaniji-umrlo-5-osoba/
2020-12-16,Karlovačka,domovi zdravlja,74,https://kaportal.net.hr/aktualno/vijesti/3946436/u-karlovackoj-zupaniji-od-jucer-162-nova-slucaja-zaraze-koronom-preminulo-pet-osoba-osam-ih-je-na-respiratoru/
2020-12-17,Karlovačka,domovi zdravlja,65,https://kaportal.net.hr/aktualno/vijesti/3947116/novih-170-slucajeva-zaraze-koronom-u-karlovackoj-zupaniji-cetiri-osobe-preminule-do-sada-ukupno-cak-149/
2020-12-18,Karlovačka,domovi zdravlja,49,https://kaportal.net.hr/aktualno/vijesti/3947776/u-karlovackoj-zupaniji-od-jucer-149-novih-slucajeva-zaraze-sedam-osoba-preminulo-kaznenu-prijavu-dobit-ce-jedna-osoba-za-sirenje-virusa/
2020-12-19,Karlovačka,domovi zdravlja,55,https://kaportal.net.hr/aktualno/vijesti/3948374/jos-cetvero-preminulih-i-185-oboljelih-od-koronavirusa-u-karlovackoj-zupaniji-u-samoizolaciji-1462-osobe/
2020-12-22,Karlovačka,domovi zdravlja,76,https://karlovacki.hr/od-jucer-u-karlovackoj-zupaniji-imamo-139-novozarazenih-ukupno-je-do-sada-oboljelo-6-230-osoba/
2020-12-23,Karlovačka,domovi zdravlja,60,https://karlovacki.hr/u-zupaniji-140-novooboljelih-preminulo-sest-osoba/
2020-12-24,Karlovačka,domovi zdravlja,45,https://karlovacki.hr/preminulo-jos-sest-osoba-134-nova-slucaja-zaraze/
2020-12-25,Karlovačka,domovi zdravlja,27,https://karlovacki.hr/63-novooboljele-osobe-u-karlovackoj-zupaniji-preminulo-pet-osoba/
2020-12-28,Karlovačka,domovi zdravlja,12,https://radio-mreznica.hr/16-pozitivnih-danas-u-karlovackoj-zupaniji/
2020-12-30,Karlovačka,domovi zdravlja,26,https://kaportal.net.hr/aktualno/vijesti/3954606/ne-miruje-tlo-ali-ni-koronavirus-od-jucer-u-karlovackoj-zupaniji-jos-108-pozitivnih-na-covid-19/
2020-12-31,Karlovačka,domovi zdravlja,32,https://karlovacki.hr/130-novooboljelih-osoba-u-karlovackoj-zupaniji-preminulo-deset-osoba/
2021-01-01,Karlovačka,domovi zdravlja,23,https://www.glasistre.hr/hrvatska/u-karlovcu-od-covida-dvije-umrle-osobe-i-43-novooboljele-690519
2021-01-03,Karlovačka,domovi zdravlja,4,https://karlovacki.hr/zupanijski-stozer-cz-20-osoba-zarazeno-virusom-sars-cov-2-u-24-sata/
2021-01-04,Karlovačka,domovi zdravlja,10,@Kiki12333047
2021-01-06,Karlovačka,domovi zdravlja,22,@Kiki12333047
2021-01-07,Karlovačka,domovi zdravlja,9,@Kiki12333047
2021-01-07,Karlovačka,domovi zdravlja,26,@Kiki12333047
2021-01-09,Karlovačka,domovi zdravlja,39,@Kiki12333047
2021-01-12,Karlovačka,domovi zdravlja,33,@Kiki12333047
2021-01-13,Karlovačka,domovi zdravlja,8,@Kiki12333047
2021-01-14,Karlovačka,domovi zdravlja,6,@Kiki12333047
2020-12-18,Krapinsko-zagorska,domovi za starije,97,http://www.kzz.hr/zupanijski-stozer-o-epidemioloskoj-situaciji-i-novim-mjerama
2020-11-30,Ličko-senjska,ZZJZ Gospić,1,ZPPI ZZJZ LSŽ 20201221
2020-12-01,Ličko-senjska,ZZJZ Gospić,0,ZPPI ZZJZ LSŽ 20201221
2020-12-02,Ličko-senjska,ZZJZ Gospić,0,ZPPI ZZJZ LSŽ 20201221
2020-12-03,Ličko-senjska,ZZJZ Gospić,0,ZPPI ZZJZ LSŽ 20201221
2020-12-04,Ličko-senjska,ZZJZ Gospić,0,ZPPI ZZJZ LSŽ 20201221
2020-12-05,Ličko-senjska,ZZJZ Gospić,0,ZPPI ZZJZ LSŽ 20201221
2020-12-06,Ličko-senjska,ZZJZ Gospić,0,ZPPI ZZJZ LSŽ 20201221
2020-12-07,Ličko-senjska,ZZJZ Gospić,0,ZPPI ZZJZ LSŽ 20201221
2020-12-08,Ličko-senjska,ZZJZ Gospić,1,ZPPI ZZJZ LSŽ 20201221
2020-12-09,Ličko-senjska,ZZJZ Gospić,0,ZPPI ZZJZ LSŽ 20201221
2020-12-10,Ličko-senjska,ZZJZ Gospić,0,ZPPI ZZJZ LSŽ 20201221
2020-12-11,Ličko-senjska,ZZJZ Gospić,1,ZPPI ZZJZ LSŽ 20201221
2020-12-12,Ličko-senjska,ZZJZ Gospić,0,ZPPI ZZJZ LSŽ 20201221
2020-12-13,Ličko-senjska,ZZJZ Gospić,0,ZPPI ZZJZ LSŽ 20201221
2020-12-14,Ličko-senjska,ZZJZ Gospić,0,ZPPI ZZJZ LSŽ 20201221
2020-12-15,Ličko-senjska,ZZJZ Gospić,0,ZPPI ZZJZ LSŽ 20201221
2020-12-16,Ličko-senjska,ZZJZ Gospić,0,ZPPI ZZJZ LSŽ 20201221
2020-12-17,Ličko-senjska,ZZJZ Gospić,0,ZPPI ZZJZ LSŽ 20201221
2020-12-18,Ličko-senjska,ZZJZ Gospić,0,ZPPI ZZJZ LSŽ 20201221
2020-11-28,Međimurska,županija,8,https://medjimurska-zupanija.hr/2020/11/28/izvjesce-stozera-civilne-zastite-medimurske-zupanije-za-subotu-28-studenoga-2020/
2020-11-29,Međimurska,županija,1,https://medjimurska-zupanija.hr/2020/11/29/izvjesce-stozera-civilne-zastite-medimurske-zupanije-za-nedjelju-29-studenoga-2020/
2020-11-30,Međimurska,županija,14,https://medjimurska-zupanija.hr/2020/11/30/dnevno-izvjesce-stozera-civilne-zastite-medimurske-zupanije-za-ponedjeljak-30-studenoga-2020/
2020-12-01,Međimurska,županija,10,https://medjimurska-zupanija.hr/2020/12/01/u-protekla-24-sata-vise-oporavljenih-nego-novopozitivnih-slucajeva-jos-sest-medicinskih-sestara-stiglo-u-ispomoc-zdravstvenom-sustavu-izvjesce-stozera-civilne-zastite-za-utorak-1-prosinca-2020/
2020-12-02,Međimurska,županija,8,https://medjimurska-zupanija.hr/2020/12/02/dnevno-priopcenje-stozera-civilne-zastite-medimurske-zupanije-za-srijedu-02-prosinca-2020/
2020-12-03,Međimurska,županija,5,https://medjimurska-zupanija.hr/2020/12/03/izvjesce-stozera-civilne-zastite-medimurske-zupanije-za-cetvrtak-03-prosinca-2020/
2020-12-04,Međimurska,županija,9,https://medjimurska-zupanija.hr/2020/12/04/izvjesce-stozera-civilne-zastite-medimurske-zupanije-za-petak-04-prosinca-2020/
2020-12-05,Međimurska,županija,1,https://medjimurska-zupanija.hr/2020/12/05/dnevno-izvjesce-stozera-civilne-zastite-medimurske-zupanije-za-subotu-5-prosinca-2020/
2020-12-06,Međimurska,županija,1,https://medjimurska-zupanija.hr/2020/12/06/izvjesce-stozera-civilne-zastite-medimurske-zupanije-za-nedjelju-06-prosinca-2020/
2020-12-08,Međimurska,županija,9,https://medjimurska-zupanija.hr/2020/12/08/dnevno-izvjesce-stozera-civilne-zastite-medimurske-zupanije-za-utorak-8-prosinca-2020/
2020-12-09,Međimurska,županija,19,https://medjimurska-zupanija.hr/2020/12/09/izvjesce-stozera-civilne-zastite-medimurske-zupanije-u-protekla-24-sata-rekordan-broj-testiranja/
2020-12-10,Međimurska,županija,14,https://medjimurska-zupanija.hr/2020/12/10/od-ponedjeljka-visi-razredi-osnovnih-skola-prelaze-na-model-c-odvijanja-nastave-izvjesce-stozera-civilne-zastite-medimurske-zupanije-za-cetvrtak-10-prosinca-2020/
2020-12-11,Međimurska,županija,3,https://medjimurska-zupanija.hr/2020/12/11/dnevno-izvjesce-stozera-civilne-zastite-medimurske-zupanije-za-petak-11-prosinca-2020/
2020-12-12,Međimurska,županija,10,https://medjimurska-zupanija.hr/2020/12/12/izvjesce-stozera-civilne-zastite-medimurske-zupanije-za-subotu-12-prosinca-2020/
2020-12-13,Međimurska,županija,1,https://medjimurska-zupanija.hr/2020/12/13/dnevno-izvjesce-stozera-civilne-zastite-medimurske-zupanije-za-nedjelju-13-prosinca-2020/
2020-12-14,Međimurska,županija,15,https://medjimurska-zupanija.hr/2020/12/14/dnevno-izvjesce-stozera-civilne-zastite-medimurske-zupanije-za-ponedjeljak-14-prosinca-2020/
2020-12-15,Međimurska,županija,6,https://medjimurska-zupanija.hr/2020/12/15/dnevno-priopcenje-stozera-civilne-zastite-medimurske-zupanije-za-utorak-15-prosinca-2020/
2020-12-16,Međimurska,županija,3,https://medjimurska-zupanija.hr/2020/12/16/dnevno-izvjesce-stozera-civilne-zastite-medimurske-zupanije-za-srijedu-16-prosinca-2020/
2020-12-17,Međimurska,županija,2,https://medjimurska-zupanija.hr/2020/12/17/dnevno-priopcenje-stozera-civilne-zastite-medimurske-zupanije-za-cetvrtak-17-prosinca-2020-godine/
2020-12-18,Međimurska,županija,10,https://medjimurska-zupanija.hr/2020/12/18/dnevno-izvjesce-stozera-civilne-zastite-medimurske-zupanije-za-petak-18-prosinca-2020/
2020-12-19,Međimurska,županija,1,https://medjimurska-zupanija.hr/2020/12/19/dnevno-izvjesce-stozera-civilne-zastite-medimurske-zupanije-za-subotu-19-prosinca-2020/
2020-12-22,Međimurska,županija,3,https://medjimurska-zupanija.hr/2020/12/22/izvjesce-stozera-civilne-zastite-medimurske-zupanije-za-utorak-22-prosinca-2020/
2020-12-23,Međimurska,županija,5,https://medjimurska-zupanija.hr/2020/12/23/dnevno-izvjesce-stozera-civilne-zastite-medimurske-zupanije-za-srijedu-23-prosinca-2020/
2020-12-24,Međimurska,županija,3,https://medjimurska-zupanija.hr/2020/12/24/izvjesce-stozera-civilne-zastite-medimurske-zupanije-za-cetvrtak-24-prosinca-2020/
2020-12-24,Međimurska,županija,3,https://medjimurska-zupanija.hr/2020/12/24/izvjesce-stozera-civilne-zastite-medimurske-zupanije-za-cetvrtak-24-prosinca-2020/
2020-12-25,Međimurska,županija,3,https://medjimurska-zupanija.hr/2020/12/25/dnevno-izvjesce-stozera-civilne-zastite-medimurske-zupanije-za-petak-25-prosinca-2020/
2020-12-27,Međimurska,županija,2,https://medjimurska-zupanija.hr/2020/12/27/dnevno-izvjesce-stozera-civilne-zastite-medimurske-zupanije-za-nedjelju-27-prosinca-2020/
2020-12-29,Međimurska,županija,2,https://medjimurska-zupanija.hr/2020/12/29/dnevno-priopcenje-stozera-civilne-zastite-medimurske-zupanije-za-utorak-29-prosinca-2020/
2020-12-31,Međimurska,županija,3,https://medjimurska-zupanija.hr/2020/12/31/dnevno-izvjesce-stozera-civilne-zastite-medimurske-zupanije-za-cetvrtak-31-prosinca-2020/
2021-01-03,Međimurska,županija,1,https://medjimurska-zupanija.hr/2021/01/03/dnevno-izvjesce-stozera-civilne-zastite-medimurske-zupanije-za-nedjelju-3-sijecnja-2021/
2021-01-05,Međimurska,županija,4,https://medjimurska-zupanija.hr/2021/01/05/dnevno-izvjesce-stozera-civilne-zastite-medimurske-zupanije-za-utorak-5-sijecnja-2021/
2021-01-07,Međimurska,županija,3,https://medjimurska-zupanija.hr/2021/01/07/dnevno-izvjesce-stozera-civilne-zastite-medimurske-zupanije-za-cetvrtak-07-sijecnja-2021/
2021-01-08,Međimurska,županija,2,https://medjimurska-zupanija.hr/2021/01/08/dnevno-izvjesce-stozera-civilne-zastite-medimurske-zupanije-za-petak-8-sijecnja-2021/
2021-01-09,Međimurska,županija,3,https://medjimurska-zupanija.hr/2021/01/09/dnevno-izvjesce-stozera-civilne-zastite-medimurske-zupanije-za-subotu-9-sijecnja-2021/
2021-01-12,Međimurska,županija,6,https://medjimurska-zupanija.hr/2021/01/12/dnevno-izvjesce-stozera-civilne-zastite-medimurske-zupanije-za-utorak-12-sijecnja-2021/
2021-01-13,Međimurska,županija,2,https://medjimurska-zupanija.hr/2021/01/13/dnevno-izvjesce-stozera-civilne-zastite-medimurske-zupanije-za-srijedu-13-sijecnja-2021/
2021-01-14,Međimurska,županija,2,https://medjimurska-zupanija.hr/2021/01/14/nastava-za-ucenike-od-1-do-4-razreda-osnovnih-skola-i-maturante-odvijat-ce-se-u-skolama-za-ostale-ucenike-online/
2020-11-24,Osječko-baranjska,KBC Osijek,0,ZPPI OBŽ 20201221
2020-11-24,Osječko-baranjska,OB Našice,0,ZPPI OBŽ 20201221
2020-11-24,Osječko-baranjska,ZZJZ Osijek,31,ZPPI OBŽ 20201221
2020-11-25,Osječko-baranjska,KBC Osijek,0,ZPPI OBŽ 20201221
2020-11-25,Osječko-baranjska,OB Našice,0,ZPPI OBŽ 20201221
2020-11-25,Osječko-baranjska,ZZJZ Osijek,106,ZPPI OBŽ 20201221
2020-11-26,Osječko-baranjska,KBC Osijek,73,ZPPI OBŽ 20201221
2020-11-26,Osječko-baranjska,OB Našice,8,ZPPI OBŽ 20201221
2020-11-26,Osječko-baranjska,ZZJZ Osijek,103,ZPPI OBŽ 20201221
2020-11-27,Osječko-baranjska,KBC Osijek,52,ZPPI OBŽ 20201221
2020-11-27,Osječko-baranjska,OB Našice,13,ZPPI OBŽ 20201221
2020-11-27,Osječko-baranjska,ZZJZ Osijek,105,ZPPI OBŽ 20201221
2020-11-28,Osječko-baranjska,KBC Osijek,0,ZPPI OBŽ 20201221
2020-11-28,Osječko-baranjska,OB Našice,12,ZPPI OBŽ 20201221
2020-11-28,Osječko-baranjska,ZZJZ Osijek,90,ZPPI OBŽ 20201221
2020-11-29,Osječko-baranjska,KBC Osijek,0,ZPPI OBŽ 20201221
2020-11-29,Osječko-baranjska,OB Našice,0,ZPPI OBŽ 20201221
2020-11-29,Osječko-baranjska,ZZJZ Osijek,55,ZPPI OBŽ 20201221
2020-11-30,Osječko-baranjska,KBC Osijek,0,ZPPI OBŽ 20201221
2020-11-30,Osječko-baranjska,OB Našice,14,ZPPI OBŽ 20201221
2020-11-30,Osječko-baranjska,ZZJZ Osijek,0,ZPPI OBŽ 20201221
2020-12-01,Osječko-baranjska,KBC Osijek,0,ZPPI OBŽ 20201221
2020-12-01,Osječko-baranjska,OB Našice,14,ZPPI OBŽ 20201221
2020-12-01,Osječko-baranjska,ZZJZ Osijek,56,ZPPI OBŽ 20201221
2020-12-02,Osječko-baranjska,KBC Osijek,0,ZPPI OBŽ 20201221
2020-12-02,Osječko-baranjska,OB Našice,15,ZPPI OBŽ 20201221
2020-12-02,Osječko-baranjska,ZZJZ Osijek,66,ZPPI OBŽ 20201221
2020-12-03,Osječko-baranjska,KBC Osijek,0,ZPPI OBŽ 20201221
2020-12-03,Osječko-baranjska,OB Našice,9,ZPPI OBŽ 20201221
2020-12-03,Osječko-baranjska,ZZJZ Osijek,94,ZPPI OBŽ 20201221
2020-12-04,Osječko-baranjska,KBC Osijek,0,ZPPI OBŽ 20201221
2020-12-04,Osječko-baranjska,OB Našice,16,ZPPI OBŽ 20201221
2020-12-04,Osječko-baranjska,ZZJZ Osijek,94,ZPPI OBŽ 20201221
2020-12-05,Osječko-baranjska,KBC Osijek,0,ZPPI OBŽ 20201221
2020-12-05,Osječko-baranjska,OB Našice,15,ZPPI OBŽ 20201221
2020-12-05,Osječko-baranjska,ZZJZ Osijek,79,ZPPI OBŽ 20201221
2020-12-06,Osječko-baranjska,KBC Osijek,0,ZPPI OBŽ 20201221
2020-12-06,Osječko-baranjska,OB Našice,12,ZPPI OBŽ 20201221
2020-12-06,Osječko-baranjska,ZZJZ Osijek,45,ZPPI OBŽ 20201221
2020-12-07,Osječko-baranjska,KBC Osijek,0,ZPPI OBŽ 20201221
2020-12-07,Osječko-baranjska,OB Našice,19,ZPPI OBŽ 20201221
2020-12-07,Osječko-baranjska,ZZJZ Osijek,0,ZPPI OBŽ 20201221
2020-12-08,Osječko-baranjska,KBC Osijek,52,ZPPI OBŽ 20201221
2020-12-08,Osječko-baranjska,OB Našice,16,ZPPI OBŽ 20201221
2020-12-08,Osječko-baranjska,ZZJZ Osijek,53,ZPPI OBŽ 20201221
2020-12-09,Osječko-baranjska,KBC Osijek,88,ZPPI OBŽ 20201221
2020-12-09,Osječko-baranjska,OB Našice,25,ZPPI OBŽ 20201221
2020-12-09,Osječko-baranjska,ZZJZ Osijek,39,ZPPI OBŽ 20201221
2020-12-10,Osječko-baranjska,KBC Osijek,31,ZPPI OBŽ 20201221
2020-12-10,Osječko-baranjska,OB Našice,45,ZPPI OBŽ 20201221
2020-12-10,Osječko-baranjska,ZZJZ Osijek,83,ZPPI OBŽ 20201221
2020-12-11,Osječko-baranjska,KBC Osijek,34,ZPPI OBŽ 20201221
2020-12-11,Osječko-baranjska,OB Našice,42,ZPPI OBŽ 20201221
2020-12-11,Osječko-baranjska,ZZJZ Osijek,40,ZPPI OBŽ 20201221
2020-12-12,Osječko-baranjska,KBC Osijek,65,ZPPI OBŽ 20201221
2020-12-12,Osječko-baranjska,OB Našice,41,ZPPI OBŽ 20201221
2020-12-12,Osječko-baranjska,ZZJZ Osijek,27,ZPPI OBŽ 20201221
2020-12-13,Osječko-baranjska,KBC Osijek,34,ZPPI OBŽ 20201221
2020-12-13,Osječko-baranjska,OB Našice,26,ZPPI OBŽ 20201221
2020-12-13,Osječko-baranjska,ZZJZ Osijek,22,ZPPI OBŽ 20201221
2020-12-14,Osječko-baranjska,KBC Osijek,3,ZPPI OBŽ 20201221
2020-12-14,Osječko-baranjska,OB Našice,34,ZPPI OBŽ 20201221
2020-12-14,Osječko-baranjska,ZZJZ Osijek,0,ZPPI OBŽ 20201221
2020-12-15,Osječko-baranjska,KBC Osijek,71,ZPPI OBŽ 20201221
2020-12-15,Osječko-baranjska,OB Našice,21,ZPPI OBŽ 20201221
2020-12-15,Osječko-baranjska,ZZJZ Osijek,100,ZPPI OBŽ 20201221
2020-12-18,Osječko-baranjska,NA,109,https://www.glas-slavonije.hr/451694/1/S-podrucja-Osjecko-baranjske-zupanije-preminulo-sedam-osoba
2020-12-11,Varaždinska,Calzedonia,10,https://www.mnovine.hr/medimurje/u-calzedoniji-napravili-339-brzih-antigenskih-testova-evo-koliko-ih-je-pozitivno/
2020-12-17,Varaždinska,Calzedonia,45,https://www.tportal.hr/vijesti/clanak/grupno-testiranje-u-calzedonia-varazdin-pozitivno-55-radnika-20201217
2020-11-23,Vukovarsko-srijemska,ZJZ Vinkovci,0,ZPPI ZJZ Vukovar
2020-11-23,Vukovarsko-srijemska,ZJZ Vukovar,7,ZPPI ZJZ Vukovar
2020-11-24,Vukovarsko-srijemska,ZJZ Vinkovci,23,ZPPI ZJZ Vukovar
2020-11-24,Vukovarsko-srijemska,ZJZ Vukovar,5,ZPPI ZJZ Vukovar
2020-11-25,Vukovarsko-srijemska,ZJZ Vinkovci,17,ZPPI ZJZ Vukovar
2020-11-25,Vukovarsko-srijemska,ZJZ Vukovar,10,ZPPI ZJZ Vukovar
2020-11-26,Vukovarsko-srijemska,ZJZ Vinkovci,25,ZPPI ZJZ Vukovar
2020-11-26,Vukovarsko-srijemska,ZJZ Vukovar,5,ZPPI ZJZ Vukovar
2020-11-27,Vukovarsko-srijemska,ZJZ Vinkovci,25,ZPPI ZJZ Vukovar
2020-11-27,Vukovarsko-srijemska,ZJZ Vukovar,11,ZPPI ZJZ Vukovar
2020-11-28,Vukovarsko-srijemska,ZJZ Vinkovci,0,ZPPI ZJZ Vukovar
2020-11-28,Vukovarsko-srijemska,ZJZ Vukovar,0,ZPPI ZJZ Vukovar
2020-11-29,Vukovarsko-srijemska,ZJZ Vinkovci,0,ZPPI ZJZ Vukovar
2020-11-29,Vukovarsko-srijemska,ZJZ Vukovar,0,ZPPI ZJZ Vukovar
2020-11-30,Vukovarsko-srijemska,ZJZ Vinkovci,3,ZPPI ZJZ Vukovar
2020-11-30,Vukovarsko-srijemska,ZJZ Vukovar,5,ZPPI ZJZ Vukovar
2020-12-01,Vukovarsko-srijemska,ZJZ Vinkovci,39,ZPPI ZJZ Vukovar
2020-12-01,Vukovarsko-srijemska,ZJZ Vukovar,15,ZPPI ZJZ Vukovar
2020-12-02,Vukovarsko-srijemska,ZJZ Vinkovci,36,ZPPI ZJZ Vukovar
2020-12-02,Vukovarsko-srijemska,ZJZ Vukovar,7,ZPPI ZJZ Vukovar
2020-12-03,Vukovarsko-srijemska,ZJZ Vinkovci,30,ZPPI ZJZ Vukovar
2020-12-03,Vukovarsko-srijemska,ZJZ Vukovar,15,ZPPI ZJZ Vukovar
2020-12-04,Vukovarsko-srijemska,ZJZ Vinkovci,32,ZPPI ZJZ Vukovar
2020-12-04,Vukovarsko-srijemska,ZJZ Vukovar,6,ZPPI ZJZ Vukovar
2020-12-05,Vukovarsko-srijemska,ZJZ Vinkovci,0,ZPPI ZJZ Vukovar
2020-12-05,Vukovarsko-srijemska,ZJZ Vukovar,0,ZPPI ZJZ Vukovar
2020-12-06,Vukovarsko-srijemska,ZJZ Vinkovci,0,ZPPI ZJZ Vukovar
2020-12-06,Vukovarsko-srijemska,ZJZ Vukovar,0,ZPPI ZJZ Vukovar
2020-12-07,Vukovarsko-srijemska,ZJZ Vinkovci,15,ZPPI ZJZ Vukovar
2020-12-07,Vukovarsko-srijemska,ZJZ Vukovar,5,ZPPI ZJZ Vukovar
2020-12-08,Vukovarsko-srijemska,ZJZ Vinkovci,23,ZPPI ZJZ Vukovar
2020-12-08,Vukovarsko-srijemska,ZJZ Vukovar,9,ZPPI ZJZ Vukovar
2020-12-09,Vukovarsko-srijemska,ZJZ Vinkovci,27,ZPPI ZJZ Vukovar
2020-12-09,Vukovarsko-srijemska,ZJZ Vukovar,10,ZPPI ZJZ Vukovar
2020-12-10,Vukovarsko-srijemska,ZJZ Vinkovci,31,ZPPI ZJZ Vukovar
2020-12-10,Vukovarsko-srijemska,ZJZ Vukovar,16,ZPPI ZJZ Vukovar
2020-12-11,Vukovarsko-srijemska,ZJZ Vinkovci,28,ZPPI ZJZ Vukovar
2020-12-11,Vukovarsko-srijemska,ZJZ Vukovar,6,ZPPI ZJZ Vukovar
2020-12-12,Vukovarsko-srijemska,ZJZ Vinkovci,0,ZPPI ZJZ Vukovar
2020-12-12,Vukovarsko-srijemska,ZJZ Vukovar,0,ZPPI ZJZ Vukovar
2020-12-13,Vukovarsko-srijemska,ZJZ Vinkovci,0,ZPPI ZJZ Vukovar
2020-12-13,Vukovarsko-srijemska,ZJZ Vukovar,0,ZPPI ZJZ Vukovar
2020-12-14,Vukovarsko-srijemska,ZJZ Vinkovci,14,ZPPI ZJZ Vukovar
2020-12-14,Vukovarsko-srijemska,ZJZ Vukovar,3,ZPPI ZJZ Vukovar
2020-12-15,Vukovarsko-srijemska,ZJZ Vinkovci,23,ZPPI ZJZ Vukovar
2020-12-15,Vukovarsko-srijemska,ZJZ Vukovar,4,ZPPI ZJZ Vukovar
2020-12-16,Vukovarsko-srijemska,ZJZ Vinkovci,13,ZPPI ZJZ Vukovar
2020-12-16,Vukovarsko-srijemska,ZJZ Vukovar,2,ZPPI ZJZ Vukovar
2020-12-17,Vukovarsko-srijemska,županija,27,http://www.vusz.hr/novosti-najave-i-sluzbene-obavijesti/u-zupaniji-pozitivne-103-osobe-na-covid-19
2020-12-18,Vukovarsko-srijemska,županija,23,http://www.vusz.hr/novosti-najave-i-sluzbene-obavijesti/u-zupaniji-pozitivno-130-osoba-na-covid-19
2020-12-19,Vukovarsko-srijemska,županija,18,http://www.vusz.hr/novosti-najave-i-sluzbene-obavijesti/na-covid-19-pozitivno-78-osoba
2020-12-20,Vukovarsko-srijemska,županija,12,http://www.vusz.hr/novosti-najave-i-sluzbene-obavijesti/pozitivno-39-osoba-na-covid-19
2020-12-21,Vukovarsko-srijemska,županija,8,http://www.vusz.hr/novosti-najave-i-sluzbene-obavijesti/na-podrucju-zupanije-je-69-novih-pozitivnih-osoba-1
2020-12-22,Vukovarsko-srijemska,županija,5,http://www.vusz.hr/novosti-najave-i-sluzbene-obavijesti/na-covid-19-pozitivno-58-osoba
2020-12-23,Vukovarsko-srijemska,županija,28,http://www.vusz.hr/novosti-najave-i-sluzbene-obavijesti/na-covid-19-pozitivno-55-osoba
2020-12-24,Vukovarsko-srijemska,županija,12,http://www.vusz.hr/novosti-najave-i-sluzbene-obavijesti/u-zupaniji-na-covid-19-pozitivno-67-osoba-1
2020-12-25,Vukovarsko-srijemska,županija,14,http://www.vusz.hr/novosti-najave-i-sluzbene-obavijesti/na-podrucju-zupanije-pozitivna-51-osoba-na-covid-19
2020-12-26,Vukovarsko-srijemska,županija,5,http://www.vusz.hr/novosti-najave-i-sluzbene-obavijesti/na-covid-19-pozitivno-29-osoba-1
2020-12-27,Vukovarsko-srijemska,županija,4,http://www.vusz.hr/novosti-najave-i-sluzbene-obavijesti/pozitivno-15-osoba-na-covid-19
2020-12-28,Vukovarsko-srijemska,županija,2,http://www.vusz.hr/novosti-najave-i-sluzbene-obavijesti/na-podrucju-zupanije-pozitivne-4-osobe-na-covid-19
2020-12-29,Vukovarsko-srijemska,županija,16,http://www.vusz.hr/novosti-najave-i-sluzbene-obavijesti/23-nove-pozitivne-osobe-na-covid-19
2020-12-30,Vukovarsko-srijemska,županija,8,http://www.vusz.hr/novosti-najave-i-sluzbene-obavijesti/na-podrucju-zupanije-19-novih-pozitivnih-osoba
2020-12-31,Vukovarsko-srijemska,županija,13,http://www.vusz.hr/novosti-najave-i-sluzbene-obavijesti/na-covid-19-pozitivno-75-osoba
2021-01-01,Vukovarsko-srijemska,županija,11,http://www.vusz.hr/novosti-najave-i-sluzbene-obavijesti/u-zupaniji-pozitivno-60-osoba-na-covid-19
2021-01-02,Vukovarsko-srijemska,županija,5,http://www.vusz.hr/novosti-najave-i-sluzbene-obavijesti/u-zupaniji-24-nove-pozitivne-osobe-na-covid-19
2021-01-03,Vukovarsko-srijemska,županija,3,http://www.vusz.hr/novosti-najave-i-sluzbene-obavijesti/na-covid-19-pozitivne-4-osobe-1
2021-01-04,Vukovarsko-srijemska,županija,4,http://www.vusz.hr/novosti-najave-i-sluzbene-obavijesti/na-covid-19-pozitivne-32-osobe
2021-01-05,Vukovarsko-srijemska,županija,9,http://www.vusz.hr/novosti-najave-i-sluzbene-obavijesti/u-zupaniji-na-covid-19-pozitivne-23-osobe
2021-01-06,Vukovarsko-srijemska,županija,17,http://www.vusz.hr/novosti-najave-i-sluzbene-obavijesti/na-covid-19-pozitivne-24-osobe-3
2021-01-07,Vukovarsko-srijemska,županija,0,http://www.vusz.hr/novosti-najave-i-sluzbene-obavijesti/u-zupaniji-pozitivno-28-osoba-na-covid-19
2021-01-08,Vukovarsko-srijemska,županija,4,http://www.vusz.hr/novosti-najave-i-sluzbene-obavijesti/novih-18-pozitivnih-osoba-na-covid-19
2021-01-09,Vukovarsko-srijemska,županija,8,http://www.vusz.hr/novosti-najave-i-sluzbene-obavijesti/na-covid-19-pozitivno-28-osoba
2021-01-10,Vukovarsko-srijemska,županija,4,http://www.vusz.hr/novosti-najave-i-sluzbene-obavijesti/u-zupaniji-nove-32-pozitivne-osobe-na-covid-19
2021-01-11,Vukovarsko-srijemska,županija,0,http://www.vusz.hr/novosti-najave-i-sluzbene-obavijesti/na-covid-19-pozitivno-20-osoba
2021-01-12,Vukovarsko-srijemska,županija,8,http://www.vusz.hr/novosti-najave-i-sluzbene-obavijesti/novih-18-pozitivnih-osoba-na-covid-19-1
2021-01-13,Vukovarsko-srijemska,županija,14,http://www.vusz.hr/novosti-najave-i-sluzbene-obavijesti/na-covid-19-pozitivno-27-osoba
2021-01-14,Vukovarsko-srijemska,županija,7,http://www.vusz.hr/novosti-najave-i-sluzbene-obavijesti/novih-37-pozitivnih-osoba-na-covid-19
2020-12-21,Zadarska,županija,12,https://www.zadarskilist.hr/clanci/21122020/preminule-4-osobe-11-pacijenata-na-respiratoru-danas-80-novooboljelih-od
